simulation/qsim/DE2_115.msim.vcd
$comment
	File created using the following command:
		vcd file DE2_115.msim.vcd -direction
$end
$date
	Wed Apr 11 14:11:21 2018
$end
$version
	ModelSim Version 10.1d
$end
$timescale
	1ps
$end
$scope module fifo_vlg_vec_tst $end
$var reg 1 ! rclk $end
$var reg 1 " rinc $end
$var reg 1 # rst_n $end
$var reg 1 $ wclk $end
$var reg 8 % wdata [7:0] $end
$var reg 1 & winc $end
$var wire 1 ' empty $end
$var wire 1 ( full $end
$var wire 1 ) rdata [7] $end
$var wire 1 * rdata [6] $end
$var wire 1 + rdata [5] $end
$var wire 1 , rdata [4] $end
$var wire 1 - rdata [3] $end
$var wire 1 . rdata [2] $end
$var wire 1 / rdata [1] $end
$var wire 1 0 rdata [0] $end
$var wire 1 1 sampler $end
$scope module i1 $end
$var wire 1 2 gnd $end
$var wire 1 3 vcc $end
$var wire 1 4 unknown $end
$var tri1 1 5 devclrn $end
$var tri1 1 6 devpor $end
$var tri1 1 7 devoe $end
$var wire 1 8 rdata[0]~output_o $end
$var wire 1 9 rdata[1]~output_o $end
$var wire 1 : rdata[2]~output_o $end
$var wire 1 ; rdata[3]~output_o $end
$var wire 1 < rdata[4]~output_o $end
$var wire 1 = rdata[5]~output_o $end
$var wire 1 > rdata[6]~output_o $end
$var wire 1 ? rdata[7]~output_o $end
$var wire 1 @ full~output_o $end
$var wire 1 A empty~output_o $end
$var wire 1 B winc~input_o $end
$var wire 1 C wclk~input_o $end
$var wire 1 D rclk~input_o $end
$var wire 1 E wdata[0]~input_o $end
$var wire 1 F bwptr|wbnext5[2]~1_combout $end
$var wire 1 G rst_n~input_o $end
$var wire 1 H bwptr|Add0~0_combout $end
$var wire 1 I bwptr|wbnext[0]~0_combout $end
$var wire 1 J bwptr|Add0~1 $end
$var wire 1 K bwptr|Add0~2_combout $end
$var wire 1 L bwptr|wbnext5[1]~0_combout $end
$var wire 1 M bwptr|Add0~3 $end
$var wire 1 N bwptr|Add0~4_combout $end
$var wire 1 O bwptr|wgnext[3]~0_combout $end
$var wire 1 P bwptr|Add0~5 $end
$var wire 1 Q bwptr|Add0~6_combout $end
$var wire 1 R rinc~input_o $end
$var wire 1 S brptr|Add0~0_combout $end
$var wire 1 T brptr|rbnext[0]~0_combout $end
$var wire 1 U brptr|Add0~1 $end
$var wire 1 V brptr|Add0~2_combout $end
$var wire 1 W brptr|rbnext5[1]~0_combout $end
$var wire 1 X brptr|Add0~3 $end
$var wire 1 Y brptr|Add0~4_combout $end
$var wire 1 Z brptr|rbnext5[2]~1_combout $end
$var wire 1 [ brptr|Add0~5 $end
$var wire 1 \ brptr|Add0~6_combout $end
$var wire 1 ] brptr|rgnext[3]~0_combout $end
$var wire 1 ^ comp|always0~1_combout $end
$var wire 1 _ brptr|Add0~7 $end
$var wire 1 ` brptr|Add0~8_combout $end
$var wire 1 a brptr|rbin5[4]~0_combout $end
$var wire 1 b bwptr|Add0~7 $end
$var wire 1 c bwptr|Add0~8_combout $end
$var wire 1 d bwptr|wbin5[4]~0_combout $end
$var wire 1 e comp|always0~3_combout $end
$var wire 1 f comp|empty~combout $end
$var wire 1 g comp|always0~0_combout $end
$var wire 1 h comp|always0~2_combout $end
$var wire 1 i comp|comb~0_combout $end
$var wire 1 j comp|full~combout $end
$var wire 1 k fifomem|MEM_rtl_0|auto_generated|ram_block1a0~portbdataout $end
$var wire 1 l fifomem|MEM~17_combout $end
$var wire 1 m fifomem|MEM~18_combout $end
$var wire 1 n fifomem|MEM~1_q $end
$var wire 1 o fifomem|MEM~0_q $end
$var wire 1 p fifomem|MEM~9_combout $end
$var wire 1 q wdata[1]~input_o $end
$var wire 1 r fifomem|MEM_rtl_0|auto_generated|ram_block1a1~portbdataout $end
$var wire 1 s fifomem|MEM~2_q $end
$var wire 1 t fifomem|MEM~10_combout $end
$var wire 1 u wdata[2]~input_o $end
$var wire 1 v fifomem|MEM_rtl_0|auto_generated|ram_block1a2~portbdataout $end
$var wire 1 w fifomem|MEM~3_q $end
$var wire 1 x fifomem|MEM~11_combout $end
$var wire 1 y wdata[3]~input_o $end
$var wire 1 z fifomem|MEM_rtl_0|auto_generated|ram_block1a3~portbdataout $end
$var wire 1 { fifomem|MEM~4_q $end
$var wire 1 | fifomem|MEM~12_combout $end
$var wire 1 } wdata[4]~input_o $end
$var wire 1 ~ fifomem|MEM_rtl_0|auto_generated|ram_block1a4~portbdataout $end
$var wire 1 !! fifomem|MEM~5_q $end
$var wire 1 "! fifomem|MEM~13_combout $end
$var wire 1 #! wdata[5]~input_o $end
$var wire 1 $! fifomem|MEM_rtl_0|auto_generated|ram_block1a5~portbdataout $end
$var wire 1 %! fifomem|MEM~6_q $end
$var wire 1 &! fifomem|MEM~14_combout $end
$var wire 1 '! wdata[6]~input_o $end
$var wire 1 (! fifomem|MEM_rtl_0|auto_generated|ram_block1a6~portbdataout $end
$var wire 1 )! fifomem|MEM~7_q $end
$var wire 1 *! fifomem|MEM~15_combout $end
$var wire 1 +! wdata[7]~input_o $end
$var wire 1 ,! fifomem|MEM_rtl_0|auto_generated|ram_block1a7~portbdataout $end
$var wire 1 -! fifomem|MEM~8_q $end
$var wire 1 .! fifomem|MEM~16_combout $end
$var wire 1 /! brptr|rgray [3] $end
$var wire 1 0! brptr|rgray [2] $end
$var wire 1 1! brptr|rgray [1] $end
$var wire 1 2! brptr|rgray [0] $end
$var wire 1 3! brptr|rgnext [3] $end
$var wire 1 4! brptr|rgnext [2] $end
$var wire 1 5! brptr|rgnext [1] $end
$var wire 1 6! brptr|rgnext [0] $end
$var wire 1 7! brptr|rbin5 [4] $end
$var wire 1 8! brptr|rbin5 [3] $end
$var wire 1 9! brptr|rbin5 [2] $end
$var wire 1 :! brptr|rbin5 [1] $end
$var wire 1 ;! brptr|rbin5 [0] $end
$var wire 1 <! bwptr|wgray [3] $end
$var wire 1 =! bwptr|wgray [2] $end
$var wire 1 >! bwptr|wgray [1] $end
$var wire 1 ?! bwptr|wgray [0] $end
$var wire 1 @! bwptr|wgnext [3] $end
$var wire 1 A! bwptr|wgnext [2] $end
$var wire 1 B! bwptr|wgnext [1] $end
$var wire 1 C! bwptr|wgnext [0] $end
$var wire 1 D! bwptr|wbin5 [4] $end
$var wire 1 E! bwptr|wbin5 [3] $end
$var wire 1 F! bwptr|wbin5 [2] $end
$var wire 1 G! bwptr|wbin5 [1] $end
$var wire 1 H! bwptr|wbin5 [0] $end
$var wire 1 I! fifomem|MEM_rtl_0|auto_generated|ram_block1a0_PORTBDATAOUT_bus [0] $end
$var wire 1 J! fifomem|MEM_rtl_0|auto_generated|ram_block1a1_PORTBDATAOUT_bus [0] $end
$var wire 1 K! fifomem|MEM_rtl_0|auto_generated|ram_block1a2_PORTBDATAOUT_bus [0] $end
$var wire 1 L! fifomem|MEM_rtl_0|auto_generated|ram_block1a3_PORTBDATAOUT_bus [0] $end
$var wire 1 M! fifomem|MEM_rtl_0|auto_generated|ram_block1a4_PORTBDATAOUT_bus [0] $end
$var wire 1 N! fifomem|MEM_rtl_0|auto_generated|ram_block1a5_PORTBDATAOUT_bus [0] $end
$var wire 1 O! fifomem|MEM_rtl_0|auto_generated|ram_block1a6_PORTBDATAOUT_bus [0] $end
$var wire 1 P! fifomem|MEM_rtl_0|auto_generated|ram_block1a7_PORTBDATAOUT_bus [0] $end
$upscope $end
$upscope $end
$enddefinitions $end
#0
$dumpvars
0!
0"
0#
0$
b1001010 %
0&
1'
0(
00
0/
0.
0-
0,
0+
0*
0)
x1
02
13
x4
15
16
17
08
09
0:
0;
0<
0=
0>
0?
0@
1A
0B
0C
0D
0E
0F
0G
0H
0I
0J
0K
0L
1M
0N
0O
0P
0Q
0R
0S
0T
0U
0V
0W
1X
0Y
0Z
0[
0\
0]
1^
1_
0`
0a
1b
0c
0d
1e
1f
1g
0h
1i
0j
0k
0l
0m
0n
0o
0p
1q
0r
0s
0t
0u
0v
0w
0x
1y
0z
0{
0|
0}
0~
0!!
0"!
0#!
0$!
0%!
0&!
1'!
0(!
0)!
0*!
0+!
0,!
0-!
0.!
02!
01!
00!
z/!
06!
05!
04!
z3!
0;!
0:!
09!
08!
07!
0?!
0>!
0=!
z<!
0C!
0B!
0A!
z@!
0H!
0G!
0F!
0E!
0D!
0I!
0J!
0K!
0L!
0M!
0N!
0O!
0P!
$end
#10000
1!
1$
1D
1C
01
#20000
0!
0$
0D
0C
11
#30000
1!
1$
1D
1C
01
#40000
1#
0!
0$
1G
0D
0C
11
0i
#50000
1!
1$
1D
1C
01
1o
#60000
0!
0$
0D
0C
11
#70000
1!
1$
1D
1C
01
#80000
0!
0$
0D
0C
11
#90000
1!
1$
1D
1C
01
#100000
0!
0$
0D
0C
11
#110000
1!
1$
1D
1C
01
#120000
1&
0!
0$
1B
0D
0C
11
1l
1H
1m
1C!
1I
#130000
1!
1$
1D
1C
01
1)!
1{
1s
1?!
1H!
0m
0g
1J
0H
1i
0e
1K
0C!
0I
1L
0f
1C!
1B!
0A
0'
#140000
0!
0$
0D
0C
11
#150000
1!
1$
1D
1C
01
1>!
1G!
0H!
0l
0M
0K
0J
1H
1N
0L
1M
1K
0C!
1I
1F
1C!
0N
1L
1A!
0F
0C!
0A!
#150001
1O!
1L!
1J!
1(!
1z
1r
1*!
1|
1t
1>
1;
19
1*
1-
1/
#160000
0!
0$
0D
0C
11
#170000
1!
1$
1D
1C
01
0?!
1H!
1J
0H
0M
0K
1C!
0I
1N
0L
1F
0C!
1A!
#180000
0&
0!
0$
0B
0D
0C
11
0J
1H
1M
1K
1C!
1I
0N
1L
0F
0C!
0A!
#190000
1!
1$
1D
1C
01
#200000
b1101010 %
b1111010 %
b1111110 %
0!
0$
1u
1}
1#!
0D
0C
11
#210000
1!
1$
1D
1C
01
#220000
0!
0$
0D
0C
11
#230000
1!
1$
1D
1C
01
#240000
0!
0$
0D
0C
11
#250000
1!
1$
1D
1C
01
#260000
b1011110 %
b1001110 %
b1001010 %
0!
0$
0u
0}
0#!
0D
0C
11
#270000
1!
1$
1D
1C
01
#280000
1&
0!
0$
1B
0D
0C
11
1J
0H
0M
0K
1C!
0I
1N
0L
1F
0C!
1A!
#290000
1!
1$
1D
1C
01
1=!
0G!
0H!
1F!
0^
1M
1K
0J
1H
1P
0N
0P
1N
1L
0K
1C!
1I
1Q
0B!
0F
0Q
1F
0C!
0L
1O
0O
1C!
1B!
#300000
0!
0$
0D
0C
11
#310000
1!
1$
1D
1C
01
1?!
1H!
1J
0H
1K
0C!
0I
1L
1C!
0B!
#320000
0!
0$
0D
0C
11
#330000
1!
1$
1D
1C
01
0>!
1G!
0H!
0M
0K
0J
1H
1P
0N
0L
1M
1K
0C!
1I
1Q
0F
1C!
0P
1N
1L
1O
0Q
1F
0C!
0O
#340000
0&
0!
0$
0B
0D
0C
11
0H
1C!
0I
#350000
1!
1$
1D
1C
01
#360000
0!
0$
0D
0C
11
#370000
1!
1$
1D
1C
01
#380000
0!
0$
0D
0C
11
#390000
1!
1$
1D
1C
01
#400000
1&
0!
0$
1B
0D
0C
11
1H
0C!
1I
#410000
1!
1$
1D
1C
01
0?!
1H!
1g
1J
0H
0M
0K
1C!
0I
1P
0N
0L
1Q
0F
0C!
1O
#420000
0!
0$
0D
0C
11
#430000
1!
1$
1D
1C
01
1E!
0G!
0H!
0F!
0b
0Q
1M
1K
0J
1H
0P
1N
1c
0A!
0O
0N
1L
0K
1C!
1I
1b
1Q
1B!
1F
1d
0F
0C!
0L
0c
1O
1A!
1C!
0B!
0d
#440000
0!
0$
0D
0C
11
#450000
1!
1$
1D
1C
01
1?!
1H!
0g
1J
0H
1K
0C!
0I
1L
1C!
1B!
#460000
0&
0!
0$
0B
0D
0C
11
0J
1H
0K
0C!
1I
0L
1C!
0B!
#470000
1!
1$
1D
1C
01
#480000
0!
0$
0D
0C
11
#490000
1!
1$
1D
1C
01
#500000
0!
0$
0D
0C
11
#510000
1!
1$
1D
1C
01
#520000
1&
0!
0$
1B
0D
0C
11
1J
0H
1K
0C!
0I
1L
1C!
1B!
#530000
b11001010 %
b11101010 %
1!
1$
1#!
1+!
1D
1C
01
1>!
1G!
0H!
0M
0K
0J
1H
1N
0L
1M
1K
0C!
1I
1F
1C!
0N
1L
0A!
0F
0C!
1A!
#540000
0!
0$
0D
0C
11
#550000
1!
1$
1D
1C
01
0?!
1H!
1J
0H
0M
0K
1C!
0I
1N
0L
1F
0C!
0A!
#560000
0!
0$
0D
0C
11
#570000
1!
1$
1D
1C
01
0=!
0G!
0H!
1F!
1M
1K
0J
1H
1P
0N
0P
1N
1L
0K
1C!
1I
0b
0Q
0B!
0F
1b
1Q
1F
0C!
0L
1c
0O
0c
1O
1C!
1B!
1d
0d
#580000
0!
0$
0D
0C
11
#590000
1!
1$
1D
1C
01
1?!
1H!
1J
0H
1K
0C!
0I
1L
1C!
0B!
#600000
0!
0$
0D
0C
11
#610000
b1101010 %
b1001010 %
1!
1$
0#!
0+!
1D
1C
01
0>!
1G!
0H!
0M
0K
0J
1H
1P
0N
0L
1M
1K
0C!
1I
0b
0Q
0F
1C!
0P
1N
1L
1c
0O
1b
1Q
1F
0C!
1d
0c
1O
0d
#620000
0&
0!
0$
0B
0D
0C
11
0H
1C!
0I
#630000
1!
1$
1D
1C
01
#640000
0!
0$
0D
0C
11
#650000
1!
1$
1D
1C
01
#660000
0!
0$
0D
0C
11
#670000
1!
1$
1D
1C
01
#680000
1&
0!
0$
1B
0D
0C
11
1H
0C!
1I
#690000
1!
1$
1D
1C
01
0?!
1H!
1g
1J
0H
0M
0K
1C!
0I
1P
0N
0L
0b
0Q
0F
0C!
1c
0O
1d
#700000
0!
0$
0D
0C
11
#710000
1!
1$
1D
1C
01
1D!
0E!
0G!
0H!
0F!
0c
1l
1^
1b
1Q
1M
1K
0J
1H
0P
1N
0d
1m
0i
1h
1c
1A!
1O
0N
1L
0K
1C!
1I
0Q
1B!
1F
1d
0F
0C!
0L
0O
1j
0A!
0B!
0I
1@
1(
#720000
0!
0$
0D
0C
11
#730000
1!
1$
1D
1C
01
#740000
0!
0$
0D
0C
11
#750000
1!
1$
1D
1C
01
#760000
0!
0$
0D
0C
11
#770000
1!
1$
1D
1C
01
#780000
0!
0$
0D
0C
11
#790000
1!
1$
1D
1C
01
#800000
0!
0$
0D
0C
11
#810000
1!
1$
1D
1C
01
#820000
0&
0!
0$
0B
0D
0C
11
0l
0H
0m
#830000
1!
1$
1D
1C
01
#840000
b1000010 %
0!
0$
0y
0D
0C
11
#850000
1!
1$
1D
1C
01
#860000
0!
0$
0D
0C
11
#870000
1!
1$
1D
1C
01
#880000
0!
0$
0D
0C
11
#890000
b1001010 %
1!
1$
1y
1D
1C
01
#900000
0!
0$
0D
0C
11
#910000
1!
1$
1D
1C
01
#920000
1&
0!
0$
1B
0D
0C
11
1l
1H
1m
#930000
1!
1$
1D
1C
01
#940000
0!
0$
0D
0C
11
#950000
1!
1$
1D
1C
01
#960000
0&
0!
0$
0B
0D
0C
11
0l
0H
0m
#970000
1!
1$
1D
1C
01
#980000
0!
0$
0D
0C
11
#990000
1!
1$
1D
1C
01
#999000
b1010 %
b1000 %
b0 %
0q
0y
0'!
11
#1000000
0!
0$
0D
0C
01
#1010000
1!
1$
1D
1C
11
#1020000
0!
0$
0D
0C
01
#1030000
1!
1$
1D
1C
11
#1040000
0!
0$
0D
0C
01
#1050000
1!
1$
1D
1C
11
#1060000
0!
0$
0D
0C
01
#1070000
1!
1$
1D
1C
11
#1080000
0!
0$
0D
0C
01
#1090000
1!
1$
1D
1C
11
#1100000
0!
0$
0D
0C
01
#1110000
1!
1$
1D
1C
11
#1120000
0!
0$
0D
0C
01
#1130000
1!
1$
1D
1C
11
#1140000
0!
0$
0D
0C
01
#1150000
1!
1$
1D
1C
11
#1160000
0!
0$
0D
0C
01
#1170000
1!
1$
1D
1C
11
#1180000
0!
0$
0D
0C
01
#1190000
1!
1$
1D
1C
11
#1200000
0!
0$
0D
0C
01
#1210000
1!
1$
1D
1C
11
#1220000
0!
0$
0D
0C
01
#1230000
1!
1$
1D
1C
11
#1240000
b10000 %
b110000 %
1&
b111000 %
0!
0$
1y
1}
1#!
1B
0D
0C
01
1l
1H
1m
#1250000
1!
1$
1D
1C
11
0)!
1%!
1!!
0s
#1260000
0!
0$
0D
0C
01
#1270000
1!
1$
1D
1C
11
#1270001
0O!
1N!
1M!
0J!
0(!
1$!
1~
0r
0*!
1&!
1"!
0t
0>
1=
1<
09
0*
1+
1,
0/
#1280000
0!
0$
0D
0C
01
#1290000
1!
1$
1D
1C
11
#1300000
0!
0$
0D
0C
01
#1310000
1!
1$
1D
1C
11
#1320000
0&
0!
0$
0B
0D
0C
01
0l
0H
0m
#1330000
1!
1$
1D
1C
11
#1340000
0!
0$
0D
0C
01
#1350000
1!
1$
1D
1C
11
#1360000
0!
0$
0D
0C
01
#1370000
1!
1$
1D
1C
11
#1380000
0!
0$
0D
0C
01
#1390000
1!
1$
1D
1C
11
#1400000
b101000 %
b1000 %
b0 %
0!
0$
0y
0}
0#!
0D
0C
01
#1410000
1!
1$
1D
1C
11
#1420000
0!
0$
0D
0C
01
#1430000
1!
1$
1D
1C
11
#1440000
0!
0$
0D
0C
01
#1450000
1!
1$
1D
1C
11
#1460000
0!
0$
0D
0C
01
#1470000
1!
1$
1D
1C
11
#1480000
0!
0$
0D
0C
01
#1490000
1!
1$
1D
1C
11
#1500000
0!
0$
0D
0C
01
#1510000
1!
1$
1D
1C
11
#1520000
0!
0$
0D
0C
01
#1530000
1!
1$
1D
1C
11
#1540000
0!
0$
0D
0C
01
#1550000
1!
1$
1D
1C
11
#1560000
0!
0$
0D
0C
01
#1570000
1!
1$
1D
1C
11
#1580000
0!
0$
0D
0C
01
#1590000
1!
1$
1D
1C
11
#1600000
1"
0!
0$
1R
0D
0C
01
1S
1T
16!
#1610000
1!
1$
1D
1C
11
12!
1;!
0g
1U
0S
1i
0h
1V
0T
1W
0j
15!
0@
0(
#1610001
1O!
0N!
0M!
1J!
1(!
0$!
0~
1r
1*!
0&!
0"!
1t
1>
0=
0<
19
1*
0+
0,
1/
#1620000
0!
0$
0D
0C
01
#1630000
1!
1$
1D
1C
11
11!
1:!
0;!
0X
0V
0U
1S
1Y
06!
0W
1X
1V
1T
1Z
0Y
1W
14!
0Z
04!
#1640000
0!
0$
0D
0C
01
#1650000
1!
1$
1D
1C
11
02!
1;!
1U
0S
0X
0V
0T
1Y
0W
1Z
14!
#1660000
0!
0$
0D
0C
01
#1670000
1!
1$
1D
1C
11
10!
19!
0:!
0;!
0^
1[
0Y
1X
1V
0U
1S
1\
05!
0Z
0[
1Y
16!
1W
0V
1T
1]
0\
1Z
0W
0]
15!
#1680000
0!
0$
0D
0C
01
#1690000
1!
1$
1D
1C
11
12!
1;!
1U
0S
1V
0T
1W
05!
#1700000
0!
0$
0D
0C
01
#1710000
1!
1$
1D
1C
11
01!
1:!
0;!
0X
0V
0U
1S
1[
0Y
06!
0W
1X
1V
1T
1\
0Z
0[
1Y
1W
1]
0\
1Z
0]
#1720000
0!
0$
0D
0C
01
#1730000
1!
1$
1D
1C
11
02!
1;!
1g
1U
0S
0X
0V
0T
1[
0Y
0W
1\
0Z
1]
#1740000
0!
0$
0D
0C
01
#1750000
1!
1$
1D
1C
11
18!
09!
0:!
0;!
0_
0\
0[
1Y
1X
1V
0U
1S
1`
04!
0]
1_
1\
15!
1Z
0Y
16!
1W
0V
1T
1a
0`
1]
0Z
0W
0a
14!
05!
#1760000
0!
0$
0D
0C
01
#1770000
1!
1$
1D
1C
11
12!
1;!
0g
1U
0S
1V
0T
1W
15!
#1770001
1P!
1N!
1,!
1$!
1.!
1&!
1?
1=
1)
1+
#1780000
0!
0$
0D
0C
01
#1790000
1!
1$
1D
1C
11
11!
1:!
0;!
0X
0V
0U
1S
1Y
06!
0W
1X
1V
1T
1Z
0Y
1W
04!
0Z
14!
#1800000
0!
0$
0D
0C
01
#1810000
1!
1$
1D
1C
11
02!
1;!
1U
0S
0X
0V
0T
1Y
0W
1Z
04!
#1820000
0!
0$
0D
0C
01
#1830000
1!
1$
1D
1C
11
00!
19!
0:!
0;!
1[
0Y
1X
1V
0U
1S
0_
0\
05!
0Z
0[
1Y
16!
1W
0V
1T
1`
0]
1_
1\
1Z
0W
1a
0`
1]
15!
0a
#1840000
1&
0!
0$
1B
0D
0C
01
1l
1H
1m
1C!
1I
#1850000
1!
1$
1D
1C
11
12!
1;!
0%!
0!!
0{
1?!
1H!
1U
0S
0m
1J
0H
1V
0T
1K
0C!
0I
1W
1L
05!
1C!
1B!
#1850001
0P!
0N!
0,!
0$!
0.!
0&!
0?
0=
0)
0+
#1860000
0!
0$
0D
0C
01
#1870000
1!
1$
1D
1C
11
01!
1:!
0;!
1>!
1G!
0H!
0X
0V
0U
1S
0l
0M
0K
0J
1H
1[
0Y
06!
0W
1X
1V
1T
1N
0L
1M
1K
0C!
1I
0_
0\
0Z
0[
1Y
1W
1F
1C!
0N
1L
1`
0]
1_
1\
1Z
1A!
0F
0C!
1a
0`
1]
0A!
0a
#1880000
0!
0$
0D
0C
01
#1890000
1!
1$
1D
1C
11
02!
1;!
0?!
1H!
1U
0S
1J
0H
0X
0V
0T
0M
0K
1C!
0I
1[
0Y
0W
1N
0L
0_
0\
0Z
1F
0C!
1`
0]
1A!
1a
#1900000
0!
0$
0D
0C
01
#1910000
1!
1$
1D
1C
11
17!
08!
09!
0:!
0;!
1=!
0G!
0H!
1F!
0`
1_
1\
0[
1Y
1X
1V
0U
1S
1M
1K
0J
1H
1P
0N
0a
1`
14!
1]
0\
15!
1Z
0Y
16!
1W
0V
1T
0P
1N
1L
0K
1C!
1I
1Q
0B!
0F
1a
0]
0Z
0W
0Q
1F
0C!
0L
1O
04!
05!
0O
1C!
1B!
#1910001
0O!
0L!
0J!
0(!
0z
0r
0*!
0|
0t
0>
0;
09
0*
0-
0/
#1920000
0"
0!
0$
0R
0D
0C
01
0S
0T
06!
#1930000
1!
1$
1D
1C
11
1?!
1H!
1J
0H
1K
0C!
0I
1L
1C!
0B!
#1940000
0!
0$
0D
0C
01
#1950000
1!
1$
1D
1C
11
0>!
1G!
0H!
0M
0K
0J
1H
1P
0N
0L
1M
1K
0C!
1I
1Q
0F
1C!
0P
1N
1L
1O
0Q
1F
0C!
0O
#1960000
0!
0$
0D
0C
01
#1970000
1!
1$
1D
1C
11
0?!
1H!
1g
1J
0H
0M
0K
1C!
0I
1P
0N
0L
1Q
0F
0C!
1O
#1980000
0!
0$
0D
0C
01
#1990000
1!
1$
1D
1C
11
1E!
0G!
0H!
0F!
0b
0Q
1M
1K
0J
1H
0P
1N
0c
0A!
0O
0N
1L
0K
1C!
1I
1b
1Q
1B!
1F
0d
0F
0C!
0L
1c
1O
1A!
1C!
0B!
1d
#2000000
b100 %
b10100 %
b11100 %
0&
0!
0$
1u
1y
1}
0B
0D
0C
01
0H
0C!
0I
#2010000
1!
1$
1D
1C
11
#2020000
0!
0$
0D
0C
01
#2030000
1!
1$
1D
1C
11
#2040000
0!
0$
0D
0C
01
#2050000
1!
1$
1D
1C
11
#2060000
0!
0$
0D
0C
01
#2070000
1!
1$
1D
1C
11
#2080000
0!
0$
0D
0C
01
#2090000
1!
1$
1D
1C
11
#2100000
0!
0$
0D
0C
01
#2110000
1!
1$
1D
1C
11
#2120000
0!
0$
0D
0C
01
#2130000
1!
1$
1D
1C
11
#2140000
0!
0$
0D
0C
01
#2150000
1!
1$
1D
1C
11
#2160000
b11000 %
b1000 %
b0 %
0!
0$
0u
0y
0}
0D
0C
01
#2170000
1!
1$
1D
1C
11
#2180000
0!
0$
0D
0C
01
#2190000
1!
1$
1D
1C
11
#2200000
0!
0$
0D
0C
01
#2210000
1!
1$
1D
1C
11
#2220000
0!
0$
0D
0C
01
#2230000
1!
1$
1D
1C
11
#2240000
0!
0$
0D
0C
01
#2250000
1!
1$
1D
1C
11
#2260000
0!
0$
0D
0C
01
#2270000
1!
1$
1D
1C
11
#2280000
0!
0$
0D
0C
01
#2290000
1!
1$
1D
1C
11
#2300000
0!
0$
0D
0C
01
#2310000
1!
1$
1D
1C
11
#2320000
0!
0$
0D
0C
01
#2330000
1!
1$
1D
1C
11
#2340000
0!
0$
0D
0C
01
#2350000
1!
1$
1D
1C
11
#2360000
1&
0!
0$
1B
0D
0C
01
1H
1C!
1I
#2370000
1!
1$
1D
1C
11
1?!
1H!
0g
1J
0H
1K
0C!
0I
1L
1C!
1B!
#2380000
0!
0$
0D
0C
01
#2390000
1!
1$
1D
1C
11
1>!
1G!
0H!
0M
0K
0J
1H
1N
0L
1M
1K
0C!
1I
1F
1C!
0N
1L
0A!
0F
0C!
1A!
#2400000
0!
0$
0D
0C
01
#2410000
1!
1$
1D
1C
11
0?!
1H!
1J
0H
0M
0K
1C!
0I
1N
0L
1F
0C!
0A!
#2420000
0!
0$
0D
0C
01
#2430000
1!
1$
1D
1C
11
0=!
0G!
0H!
1F!
1M
1K
0J
1H
1P
0N
0P
1N
1L
0K
1C!
1I
0b
0Q
0B!
0F
1b
1Q
1F
0C!
0L
0c
0O
1c
1O
1C!
1B!
0d
1d
#2440000
0!
0$
0D
0C
01
#2450000
1!
1$
1D
1C
11
1?!
1H!
1J
0H
1K
0C!
0I
1L
1C!
0B!
#2460000
0!
0$
0D
0C
01
#2470000
1!
1$
1D
1C
11
0>!
1G!
0H!
0M
0K
0J
1H
1P
0N
0L
1M
1K
0C!
1I
0b
0Q
0F
1C!
0P
1N
1L
0c
0O
1b
1Q
1F
0C!
0d
1c
1O
1d
#2480000
0!
0$
0D
0C
01
#2490000
1!
1$
1D
1C
11
0?!
1H!
1g
1J
0H
0M
0K
1C!
0I
1P
0N
0L
0b
0Q
0F
0C!
0c
0O
0d
#2500000
0!
0$
0D
0C
01
#2510000
1!
1$
1D
1C
11
0D!
0E!
0G!
0H!
0F!
1c
1l
1^
1b
1Q
1M
1K
0J
1H
0P
1N
1d
1m
0i
1h
0c
1A!
1O
0N
1L
0K
1C!
1I
0Q
1B!
1F
0d
0F
0C!
0L
0O
1j
0A!
0B!
0I
1@
1(
#2520000
0&
0!
0$
0B
0D
0C
01
0l
0H
0m
#2530000
1!
1$
1D
1C
11
#2540000
0!
0$
0D
0C
01
#2550000
1!
1$
1D
1C
11
#2560000
b1000000 %
b1100000 %
0!
0$
1#!
1'!
0D
0C
01
#2570000
1!
1$
1D
1C
11
#2580000
0!
0$
0D
0C
01
#2590000
1!
1$
1D
1C
11
#2600000
0!
0$
0D
0C
01
#2610000
1!
1$
1D
1C
11
#2620000
0!
0$
0D
0C
01
#2630000
1!
1$
1D
1C
11
#2640000
0!
0$
0D
0C
01
#2650000
1!
1$
1D
1C
11
#2660000
0!
0$
0D
0C
01
#2670000
1!
1$
1D
1C
11
#2680000
0!
0$
0D
0C
01
#2690000
1!
1$
1D
1C
11
#2700000
0!
0$
0D
0C
01
#2710000
1!
1$
1D
1C
11
#2720000
b100000 %
b0 %
0!
0$
0#!
0'!
0D
0C
01
#2730000
1!
1$
1D
1C
11
#2740000
0!
0$
0D
0C
01
#2750000
1!
1$
1D
1C
11
#2760000
0!
0$
0D
0C
01
#2770000
1!
1$
1D
1C
11
#2780000
0!
0$
0D
0C
01
#2790000
1!
1$
1D
1C
11
#2800000
0!
0$
0D
0C
01
#2810000
1!
1$
1D
1C
11
#2820000
0!
0$
0D
0C
01
#2830000
1!
1$
1D
1C
11
#2840000
0!
0$
0D
0C
01
#2850000
1!
1$
1D
1C
11
#2860000
0!
0$
0D
0C
01
#2870000
1!
1$
1D
1C
11
#2880000
b10 %
b110 %
b10110 %
b11110 %
0!
0$
1q
1u
1y
1}
0D
0C
01
#2890000
1!
1$
1D
1C
11
#2900000
0!
0$
0D
0C
01
#2910000
1!
1$
1D
1C
11
#2920000
0!
0$
0D
0C
01
#2930000
1!
1$
1D
1C
11
#2940000
0!
0$
0D
0C
01
#2950000
1!
1$
1D
1C
11
#2960000
1&
0!
0$
1B
0D
0C
01
1l
1H
1m
#2970000
1!
1$
1D
1C
11
1!!
1{
1w
1s
#2980000
0!
0$
0D
0C
01
#2990000
1!
1$
1D
1C
11
#2990001
1M!
1L!
1K!
1J!
1~
1z
1v
1r
1"!
1|
1x
1t
1<
1;
1:
19
1,
1-
1.
1/
#3000000
0!
0$
0D
0C
01
#3010000
1!
1$
1D
1C
11
#3020000
0!
0$
0D
0C
01
#3030000
1!
1$
1D
1C
11
#3040000
b11100 %
b11000 %
b1000 %
b0 %
0!
0$
0q
0u
0y
0}
0D
0C
01
#3050000
1!
1$
1D
1C
11
0!!
0{
0w
0s
#3060000
0!
0$
0D
0C
01
#3070000
1!
1$
1D
1C
11
#3070001
0M!
0L!
0K!
0J!
0~
0z
0v
0r
0"!
0|
0x
0t
0<
0;
0:
09
0,
0-
0.
0/
#3080000
0&
0!
0$
0B
0D
0C
01
0l
0H
0m
#3090000
1!
1$
1D
1C
11
#3100000
0!
0$
0D
0C
01
#3110000
1!
1$
1D
1C
11
#3120000
0!
0$
0D
0C
01
#3130000
1!
1$
1D
1C
11
#3140000
0!
0$
0D
0C
01
#3150000
1!
1$
1D
1C
11
#3160000
0!
0$
0D
0C
01
#3170000
1!
1$
1D
1C
11
#3180000
0!
0$
0D
0C
01
#3190000
1!
1$
1D
1C
11
#3200000
0!
0$
0D
0C
01
#3210000
1!
1$
1D
1C
11
#3220000
0!
0$
0D
0C
01
#3230000
1!
1$
1D
1C
11
#3240000
0!
0$
0D
0C
01
#3250000
1!
1$
1D
1C
11
#3260000
0!
0$
0D
0C
01
#3270000
1!
1$
1D
1C
11
#3280000
b10 %
b110 %
b1110 %
0!
0$
1q
1u
1y
0D
0C
01
